id,name,model_id:id,group_id:id,perm_read,perm_write,perm_create,perm_unlink

access_prod_req_user,Requisition User,model_product_requisition,group_prod_req_user,1,0,0,0
access_prod_req_manager,Requisition Manager,model_product_requisition,group_prod_req_manager,1,1,1,1
