"id","name","model_id:id","group_id:id","perm_read","perm_write","perm_create","perm_unlink"
"access_invoice_cancel_reason_user","access_invoice_cancel_reason_user","model_invoice_cancel_reason","account.group_account_user",1,0,0,0
"access_invoice_cancel_reason_invoice","access_invoice_cancel_reason_invoice","model_invoice_cancel_reason","account.group_account_invoice",1,0,0,0
"access_invoice_cancel_reason_manager","access_invoice_cancel_reason_manager","model_invoice_cancel_reason","account.group_account_manager",1,1,1,1
